GEFCom2017 tutorial: part 1 · Cameron's blog
…
We will also be using the xgboost package, but caret should automatically install this when we fit models.

Data

The gefcom data frame contains the data we wish to work with. Eight bottom-level zones and two aggregated zones are included.

library(caret)
library(tidyverse)
library(lubridate)
library(gefcom2017data)

gefcom
## # A tibble: 1,241,710 x 15
## # Groups:   zone [10]
##    ts                  zone  demand drybulb dewpnt date        year month
##    <dttm>              <chr>  <dbl>   <dbl>  <dbl> <date>     <dbl> <fct>
##  1 2017-01-01 00:00:00 NEMA…  2421.      40     37 2017-01-01  2017 Jan  
##  2 2017-01-01 01:00:00 NEMA…  2335.      39     36 2017-01-01  2017 Jan  
##  3 2017-01-01 02:00:00 NEMA…  2263.      38     35 2017-01-01  2017 Jan  
##  4 2017-01-01 03:00:00 NEMA…  2217.      37     35 2017-01-01  2017 Jan  
##  5 2017-01-01 04:00:00 NEMA…  2206.      37     35 2017-01-01  2017 Jan  
##  6 2017-01-01 05:00:00 NEMA…  2231.      37     35 2017-01-01  2017 Jan  
##  7 2017-01-01 06:00:00 NEMA…  2291.      37     34 2017-01-01  2017 Jan  
##  8 2017-01-01 07:00:00 NEMA…  2331.      36     33 2017-01-01  2017 Jan  
##  9 2017-01-01 08:00:00 NEMA…  2379.      38     32 2017-01-01  2017 Jan  
## 10 2017-01-01 09:00:00 NEMA…  2429.      40     31 2017-01-01  2017 Jan  
## # … with 1,241,700 more rows, and 7 more variables: hour <dbl>,
## #   day_of_week <fct>, day_of_year <dbl>, weekend <lgl>,
## #   holiday_name <chr>, holiday <lgl>, trend <dbl>
…
  # Remove NAs in early rows due to lags
  data <- data %>% 
    slice((max(lags)+1):nrow(data))
  
  data
}

gefcom <- gefcom %>%
  mutate(data = map(data, add_lags, variables = c("drybulb", "dewpnt"), 
                    lags = 1:72))

gefcom %>%
  filter(zone == "SEMASS") %>%
  unnest()
## # A tibble: 124,099 x 159
##    zone  ts                  demand drybulb dewpnt date        year month
##    <chr> <dttm>               <dbl>   <dbl>  <dbl> <date>     <dbl> <fct>
##  1 SEMA… 2017-01-04 00:00:00  1279.      45     43 2017-01-04  2017 Jan  
##  2 SEMA… 2017-01-04 01:00:00  1223.      44     43 2017-01-04  2017 Jan  
##  3 SEMA… 2017-01-04 02:00:00  1190.      44     42 2017-01-04  2017 Jan  
##  4 SEMA… 2017-01-04 03:00:00  1192.      43     43 2017-01-04  2017 Jan  
##  5 SEMA… 2017-01-04 04:00:00  1236.      43     40 2017-01-04  2017 Jan  
##  6 SEMA… 2017-01-04 05:00:00  1362.      43     39 2017-01-04  2017 Jan  
##  7 SEMA… 2017-01-04 06:00:00  1573.      41     39 2017-01-04  2017 Jan  
##  8 SEMA… 2017-01-04 07:00:00  1692.      41     39 2017-01-04  2017 Jan  
##  9 SEMA… 2017-01-04 08:00:00  1709.      41     38 2017-01-04  2017 Jan  
## 10 SEMA… 2017-01-04 09:00:00  1711.      41     38 2017-01-04  2017 Jan  
## # … with 124,089 more rows, and 151 more variables: hour <dbl>,
## #   day_of_week <fct>, day_of_year <dbl>, weekend <lgl>,
## #   holiday_name <chr>, holiday <lgl>, trend <dbl>, drybulb_lag1 <dbl>,
## #   drybulb_lag2 <dbl>, drybulb_lag3 <dbl>, drybulb_lag4 <dbl>,
## #   drybulb_lag5 <dbl>, drybulb_lag6 <dbl>, drybulb_lag7 <dbl>,
## #   drybulb_lag8 <dbl>, drybulb_lag9 <dbl>, drybulb_lag10 <dbl>,
## #   drybulb_lag11 <dbl>, drybulb_lag12 <dbl>, drybulb_lag13 <dbl>,
## #   drybulb_lag14 <dbl>, drybulb_lag15 <dbl>, drybulb_lag16 <dbl>,
## #   drybulb_lag17 <dbl>, drybulb_lag18 <dbl>, drybulb_lag19 <dbl>,
…
